HCA Data Discovery • BiocHCADataAccess
…
Annotations on genes from the HCA pipeline used in pre-processing.

library(dplyr)
colData(loom) %>%
    as_tibble()
## # A tibble: 156,936 x 44
##    CellID analysis_protoc… analysis_protoc… analysis_workin… barcode bundle_uuid
##    <chr>  <chr>            <chr>            <chr>            <chr>   <chr>      
##  1 0002f… optimus_v1.3.1   ca93a946-4c58-4… blessed          CAACCT… 4c0fb68f-c…
##  2 00032… optimus_v1.3.1   a34b5f5b-c6de-4… blessed          TTTGTC… d9313f14-d…
##  3 0003c… optimus_v1.3.1   c1f32245-b732-4… blessed          CCTTTC… fd6fc9ba-2…
##  4 00053… optimus_v1.3.1   a34b5f5b-c6de-4… blessed          ATAGAC… d9313f14-d…
##  5 0006d… optimus_v1.3.2   83af655a-7104-4… blessed          CATTAT… 74804ad7-3…
##  6 00072… optimus_v1.3.1   a34b5f5b-c6de-4… blessed          CCTATT… d9313f14-d…
##  7 000d3… optimus_v1.3.1   c5c73a09-8c0c-4… blessed          CTACAT… c7b2a2c7-9…
##  8 000f4… optimus_v1.3.1   c1f32245-b732-4… blessed          AACTCC… fd6fc9ba-2…
##  9 00107… optimus_v1.3.1   c5c73a09-8c0c-4… blessed          CTTCTC… c7b2a2c7-9…
## 10 0020a… optimus_v1.3.1   c1f32245-b732-4… blessed          ATTTCT… fd6fc9ba-2…
## # … with 156,926 more rows, and 38 more variables: bundle_version <chr>,
## #   cell_suspension.genus_species.ontology <chr>,
## #   cell_suspension.genus_species.ontology_label <chr>,
## #   cell_suspension.provenance.document_id <chr>, derived_organ_label <chr>,
## #   derived_organ_ontology <chr>, derived_organ_parts_label <chr>,
## #   derived_organ_parts_ontology <chr>,
## #   donor_organism.development_stage.ontology <chr>,
## #   donor_organism.development_stage.ontology_label <chr>,
## #   donor_organism.diseases.ontology <chr>,
…
